[
  {
    "CODPROD": 2,
    "DESCRICAO": "AGUA QUENTE",
    "SECAO": "AGUA",
    "QTD_DISPON": 973604.9629,
    "TIPO_MERC": "MP",
    "QTD_NECESSIDADE": 0,
    "QTD_PEDIDA": 0
  },
  {
    "CODPROD": 412,
    "DESCRICAO": "FRASCO PET 500ML DETERGENTE LIMAO",
    "SECAO": "FRASCOS",
    "QTD_DISPON": 0,
    "TIPO_MERC": "EM",
    "QTD_NECESSIDADE": 0,
    "QTD_PEDIDA": 0
  },
  {
    "CODPROD": 312,
    "DESCRICAO": "FRASCO PET 2L CRISTAL PCO 28MM",
    "SECAO": "FRASCOS",
    "QTD_DISPON": 1734,
    "TIPO_MERC": "EM",
    "QTD_NECESSIDADE": 0,
    "QTD_PEDIDA": 0
  },
  {
    "CODPROD": 946,
    "DESCRICAO": "FRASCO LAVA ROUPAS PET 1L",
    "SECAO": "FRASCOS",
    "QTD_DISPON": 114,
    "TIPO_MERC": "EM",
    "QTD_NECESSIDADE": 0,
    "QTD_PEDIDA": 3000
  },
  {
    "CODPROD": 370,
    "DESCRICAO": "FRASCO PET 500ML DESINFETANTE LAVANDA",
    "SECAO": "FRASCOS",
    "QTD_DISPON": 15,
    "TIPO_MERC": "EM",
    "QTD_NECESSIDADE": 0,
    "QTD_PEDIDA": 0
  },
  {
    "CODPROD": 840,
    "DESCRICAO": "FRASCO NANOSOFT 2L AZUL ESCURO",
    "SECAO": "FRASCOS",
    "QTD_DISPON": 244,
    "TIPO_MERC": "EM",
    "QTD_NECESSIDADE": 0,
    "QTD_PEDIDA": 0
  },
  {
    "CODPROD": 377,
    "DESCRICAO": "FRASCO MULTIUSO LIMPIM ORIGINAL 500ML",
    "SECAO": "FRASCOS",
    "QTD_DISPON": 0,
    "TIPO_MERC": "EM",
    "QTD_NECESSIDADE": 384,
    "QTD_PEDIDA": 16000
  },
  {
    "CODPROD": 838,
    "DESCRICAO": "TAMPA BAIXA TRANP. P/FR SIX 2L",
    "SECAO": "FRASCOS",
    "QTD_DISPON": 2264,
    "TIPO_MERC": "MP",
    "QTD_NECESSIDADE": -102,
    "QTD_PEDIDA": 0
  },
  {
    "CODPROD": 837,
    "DESCRICAO": "FRASCO SIX VIRGEM LIMPIM 2L",
    "SECAO": "FRASCOS",
    "QTD_DISPON": 566,
    "TIPO_MERC": "EM",
    "QTD_NECESSIDADE": -102,
    "QTD_PEDIDA": 0
  },
  {
    "CODPROD": 312,
    "DESCRICAO": "FRASCO PET 2L CRISTAL PCO 28MM",
    "SECAO": "FRASCOS",
    "QTD_DISPON": 1734,
    "TIPO_MERC": "EM",
    "QTD_NECESSIDADE": -6480,
    "QTD_PEDIDA": 0
  },
  {
    "CODPROD": 1634,
    "DESCRICAO": "BALDE PLASTICO BRC 20L",
    "SECAO": "BALDE",
    "QTD_DISPON": 101,
    "TIPO_MERC": "EM",
    "QTD_NECESSIDADE": 0,
    "QTD_PEDIDA": 0
  },
  {
    "CODPROD": 692,
    "DESCRICAO": "ALCA AZUL FRASCO PET 5L ",
    "SECAO": "ALÇA",
    "QTD_DISPON": 123.990415,
    "TIPO_MERC": "EM",
    "QTD_NECESSIDADE": 0,
    "QTD_PEDIDA": 0
  },
  {
    "CODPROD": 6017,
    "DESCRICAO": "RESINA KURARAI POVAL PVA 224 SB/EUVAN",
    "SECAO": "RESINA",
    "QTD_DISPON": 25,
    "TIPO_MERC": "MP",
    "QTD_NECESSIDADE": 0,
    "QTD_PEDIDA": 140
  },
  {
    "CODPROD": 435,
    "DESCRICAO": "CX 019 CARTUCHO REFIL 800ML S/ROT.",
    "SECAO": "CAIXAS",
    "QTD_DISPON": 2076,
    "TIPO_MERC": "EM",
    "QTD_NECESSIDADE": -444,
    "QTD_PEDIDA": 0
  },
  {
    "CODPROD": 1601,
    "DESCRICAO": "CX 04 INSTITUCIONAL 4X5L 374X266X290MM",
    "SECAO": "CAIXAS",
    "QTD_DISPON": 388,
    "TIPO_MERC": "EM",
    "QTD_NECESSIDADE": -65,
    "QTD_PEDIDA": 0
  },
  {
    "CODPROD": 699,
    "DESCRICAO": "RESINA PRIMAL HT 300",
    "SECAO": "RESINA",
    "QTD_DISPON": 0,
    "TIPO_MERC": "MP",
    "QTD_NECESSIDADE": -19.413600000000002,
    "QTD_PEDIDA": 0
  },
  {
    "CODPROD": 1488,
    "DESCRICAO": "RESINA EAB 300 / HG06 / HC058",
    "SECAO": "RESINA",
    "QTD_DISPON": 0,
    "TIPO_MERC": "MP",
    "QTD_NECESSIDADE": 2.3785000000000016,
    "QTD_PEDIDA": 0
  },
  {
    "CODPROD": 394,
    "DESCRICAO": "RESINA EAS 401/ACRYLUX HS 880",
    "SECAO": "RESINA",
    "QTD_DISPON": 9,
    "TIPO_MERC": "MP",
    "QTD_NECESSIDADE": 1.1106,
    "QTD_PEDIDA": 0
  },
  {
    "CODPROD": 960,
    "DESCRICAO": "CX 021 LIMPA CERAMICA 12X1L",
    "SECAO": "CAIXAS",
    "QTD_DISPON": 0,
    "TIPO_MERC": "EM",
    "QTD_NECESSIDADE": -30,
    "QTD_PEDIDA": 0
  },
  {
    "CODPROD": 5123,
    "DESCRICAO": "CX 026 USECLOR 12X300ML 200X175X213MM",
    "SECAO": "CAIXAS",
    "QTD_DISPON": 1318,
    "TIPO_MERC": "EM",
    "QTD_NECESSIDADE": -73,
    "QTD_PEDIDA": 0
  },
  {
    "CODPROD": 1053,
    "DESCRICAO": "TAMPA 28MM BRANCA AGUA SANITARIA    ",
    "SECAO": "TAMPA",
    "QTD_DISPON": 5048,
    "TIPO_MERC": "MP",
    "QTD_NECESSIDADE": 0,
    "QTD_PEDIDA": 31000
  },
  {
    "CODPROD": 383,
    "DESCRICAO": "METASSILICATO DE SODIO                  ",
    "SECAO": "QUIMICOS",
    "QTD_DISPON": 286.06,
    "TIPO_MERC": "MP",
    "QTD_NECESSIDADE": 0,
    "QTD_PEDIDA": 0
  },
  {
    "CODPROD": 351,
    "DESCRICAO": "ETILDIGLICOL / FC 101 EDG",
    "SECAO": "QUIMICOS",
    "QTD_DISPON": 29.8,
    "TIPO_MERC": "MP",
    "QTD_NECESSIDADE": 0,
    "QTD_PEDIDA": 0
  },
  {
    "CODPROD": 1611,
    "DESCRICAO": "VALVULA PUMP 28/410 PCO28MM TRANSP.",
    "SECAO": "TAMPA",
    "QTD_DISPON": 644,
    "TIPO_MERC": "EM",
    "QTD_NECESSIDADE": 0,
    "QTD_PEDIDA": 0
  },
  {
    "CODPROD": 2848,
    "DESCRICAO": "PEROXIDO DE HIDROGENIO 50%",
    "SECAO": "QUIMICOS",
    "QTD_DISPON": 44,
    "TIPO_MERC": "MP",
    "QTD_NECESSIDADE": 0,
    "QTD_PEDIDA": 0
  },
  {
    "CODPROD": 260,
    "DESCRICAO": "HIPOCLORITO DE SODIO SOLUCAO 8 ONU 179",
    "SECAO": "QUIMICOS",
    "QTD_DISPON": 0,
    "TIPO_MERC": "MP",
    "QTD_NECESSIDADE": 0,
    "QTD_PEDIDA": 16600
  }
]